{
    "$schema": "./vitalise-data-point-0.1.json",
    "vitalise_person": {
        "person": {
            "id": 0
        }      
    },
    "data":{
        "physiological_monitoring": {            
                "heart_rate": {
                    "heart_rate":{
                        "unit": "beats/min",
                        "value": 90                        
                    },
                    "effective_time_frame":{
                        "date_time": "2013-02-05T07:25:00.123Z"                        
                    }
                }
            } 
		  
    }   
}





    
    