{
    "$schema": "http://json-schema.org/draft-07/schema#",

    "description": "This schema represents Vitalise Type of Data.",
    "type": "object",   

    "definitions": {       
        "person": {
            "$ref": "./vit-person-1.0.json"
        },
        "type_of_data": {
			"$ref": "./vit-type-of-data-0.1.json"
        }
    },
    "properties": {
        "vitalise_person": {
            "$ref": "#/definitions/person"
        },
        "data":{            
              "$ref": "#/definitions/type_of_data"
            }            
    },
    "required": [ "vitalise_person", "data"]
}  