{
	"$schema": "http://json-schema.org/draft-07/schema#",
	"description": "This schema represents Vitalise Dataset Physiological Monitoring.",
	"type": "object",
	"definitions": {
		"heart_rate": {
			"$ref": "./vit-dataset-heart-rate-1.0.json"
		},
		"body_weight": {
			"$ref": "./vit-dataset-body-weight-1.0.json"
		}
	},
	 "properties": {
        "heart_rate": {
           "$ref": "#/definitions/heart_rate"
                },
        "body_weight": {
           "$ref": "#/definitions/body_weight"
                }
     },                
	"anyOf": [
        {"required": ["heart_rate"]},
		{"required": ["body_weight"]}	
	]
}	