{
    "$schema": "http://json-schema.org/draft-04/schema#",

    "description": "This schema represents accelerometer measurements. The assumption is a 2-axis accelerometer. For a 3-axis accelerometer, the z measurement should also be required.",
    "type": "object",

    "definitions": {
        "acceleration_unit_value": {
            "$ref": "acceleration-unit-value-1.0.json"
        },
        "time_frame": {
            "$ref": "time-frame-1.0.json"
        },
        "body_location": {
            "$ref": "body-location-1.0.json"
        },
        "descriptive_statistic": {
            "$ref": "descriptive-statistic-1.0.json"
        }
    },

    "properties": {
        "acceleration_x": {
            "$ref": "#/definitions/acceleration_unit_value"
        },
        "acceleration_y": {
            "$ref": "#/definitions/acceleration_unit_value"
        },
        "acceleration_z": {
            "$ref": "#/definitions/acceleration_unit_value"
        },
        "effective_time_frame": {
            "$ref": "#/definitions/time_frame"
        },
        "sensor_body_location": {
            "$ref": "#/definitions/body_location"
        },
        "descriptive_statistic": {
            "$ref": "#/definitions/descriptive_statistic"
        }
    },
    "required": [
        "acceleration_x",
        "acceleration_y",
        "effective_time_frame"
    ]
}